<?xml version="1.0" encoding="iso-8859-1"?>
<!-- Generator: Adobe Illustrator 19.0.0, SVG Export Plug-In . SVG Version: 6.00 Build 0)  -->
<svg version="1.1" id="Capa_1" xmlns="http://www.w3.org/2000/svg" xmlns:xlink="http://www.w3.org/1999/xlink" x="0px" y="0px"
	 viewBox="0 0 448 448" style="enable-background:new 0 0 448 448;" xml:space="preserve">
<g>
	<g>
		<path d="M352,96H32c-17.6,0-32,14.4-32,32v192c0,17.68,14.32,32,32,32h320c17.68,0,32-14.32,32-32V128
			C384,110.32,369.679,96,352,96z M352,320H32V128h320V320z"/>
	</g>
</g>
<g>
	<g>
		<rect x="416" y="160" width="32" height="128"/>
	</g>
</g>
<g>
	<g>
		<rect x="64" y="160" width="160" height="128"/>
	</g>
</g>
<g>
</g>
<g>
</g>
<g>
</g>
<g>
</g>
<g>
</g>
<g>
</g>
<g>
</g>
<g>
</g>
<g>
</g>
<g>
</g>
<g>
</g>
<g>
</g>
<g>
</g>
<g>
</g>
<g>
</g>
</svg>
